[
  "CDwindow-99E42C5554B8376E629FF374C8EA2046",
  "CDwindow-B507B156B4CD5A78737E2A1AEA1DF141",
  "CDwindow-BCE19E85192F3D4C6521F491653B692F",
  "CDwindow-F349F2835134A2AA92380A615F396FF1",
  "CDwindow-D316B1807F23C976C90E59C455133363"
]