[
  "CDwindow-466D24FF9C2D545C2931B0DB0035975A",
  "CDwindow-71B089D527C87671128940B348A98609",
  "CDwindow-015569CD7109367683D3A533F2038E1F",
  "CDwindow-BC99C6CBED60507C14C00E404B255402",
  "CDwindow-447577A9B08A464B345BC3DFB6F75C72"
]