{
  "error": "no such element",
  "message": "no such element: Unable to locate element: {\"method\":\"xpath\",\"selector\":\"//span[contains(text(), 'Email')]\"}\n  (Session info: chrome=89.0.4389.82)",
  "stacktrace": "Backtrace:\n\tGetHandleVerifier [0x00FDB963+483]\n\tGetHandleVerifier [0x00FDB941+449]\n\tGetHandleVerifier [0x01383308+3832712]\n\tGetHandleVerifier [0x013A61C4+3975748]\n\tGetHandleVerifier [0x013C8822+4116642]\n\tGetHandleVerifier [0x013BB43A+4062394]\n\tGetHandleVerifier [0x013C7159+4110809]\n\tGetHandleVerifier [0x013BB2EB+4062059]\n\tGetHandleVerifier [0x0139ED14+3945876]\n\tGetHandleVerifier [0x0139FBCE+3949646]\n\tGetHandleVerifier [0x0139FB59+3949529]\n\tOrdinal0 [0x00F9B5CC+46540]\n\tOrdinal0 [0x00F99F53+40787]\n\tOrdinal0 [0x00F99B12+39698]\n\tGetHandleVerifier [0x012A1468+2907368]\n\tGetHandleVerifier [0x010E71EE+1096302]\n\tGetHandleVerifier [0x010A3E8D+821005]\n\tGetHandleVerifier [0x010A396B+819691]\n\tGetHandleVerifier [0x010A3881+819457]\n\tGetHandleVerifier [0x010CF463+998627]\n\tBaseThreadInitThunk [0x7603FA29+25]\n\tRtlGetAppContainerNamedObjectPath [0x77277C7E+286]\n\tRtlGetAppContainerNamedObjectPath [0x77277C4E+238]\n"
}