[ {
  "uid" : "af8f5be5cd3c2c26",
  "name" : "Create an account with an existing email in DB",
  "time" : {
    "start" : 1615798724551,
    "stop" : 1615798728331,
    "duration" : 3780
  },
  "status" : "passed",
  "severity" : "normal"
}, {
  "uid" : "744d91954355d907",
  "name" : "Correct email validation functionality",
  "time" : {
    "start" : 1615798616946,
    "stop" : 1615798620252,
    "duration" : 3306
  },
  "status" : "passed",
  "severity" : "normal"
}, {
  "uid" : "fc11a1a90237ccf",
  "name" : "Sign-up with a correctly formatted email address and password",
  "time" : {
    "start" : 1615798721453,
    "stop" : 1615798724551,
    "duration" : 3098
  },
  "status" : "passed",
  "severity" : "normal"
}, {
  "uid" : "267161b2380e60c",
  "name" : "Request sent functionality",
  "time" : {
    "start" : 1615798623980,
    "stop" : 1615798627923,
    "duration" : 3943
  },
  "status" : "passed",
  "severity" : "normal"
}, {
  "uid" : "a80b8fd2210709a4",
  "name" : "Sign-up without checking checkbox I agree to the TrendMD",
  "time" : {
    "start" : 1615798712015,
    "stop" : 1615798715226,
    "duration" : 3211
  },
  "status" : "passed",
  "severity" : "normal"
}, {
  "uid" : "d28570395eec0b37",
  "name" : "Reader Dashboard footer links Sign in page",
  "time" : {
    "start" : 1615798578007,
    "stop" : 1615798589199,
    "duration" : 11192
  },
  "status" : "passed",
  "severity" : "normal"
}, {
  "uid" : "30cca747c79b9e15",
  "name" : "verify wrong credential message",
  "time" : {
    "start" : 1615798658290,
    "stop" : 1615798661930,
    "duration" : 3640
  },
  "status" : "passed",
  "severity" : "normal"
}, {
  "uid" : "42e0e9c8ec45144f",
  "name" : "Text of checkboxes",
  "time" : {
    "start" : 1615798718335,
    "stop" : 1615798721452,
    "duration" : 3117
  },
  "status" : "passed",
  "severity" : "normal"
}, {
  "uid" : "e82da04334794c7f",
  "name" : "Reader Dashboard footer links open correct pages when the user is logged in",
  "time" : {
    "start" : 1615798607229,
    "stop" : 1615798615620,
    "duration" : 8391
  },
  "status" : "passed",
  "severity" : "normal"
}, {
  "uid" : "2d9a12c7769e7917",
  "name" : "Reader Dashboard footer links Sign up page",
  "time" : {
    "start" : 1615798589199,
    "stop" : 1615798598663,
    "duration" : 9464
  },
  "status" : "passed",
  "severity" : "normal"
}, {
  "uid" : "d7ecbf3c283eb31",
  "name" : "Remove/Re-add articles",
  "time" : {
    "start" : 1615798640074,
    "stop" : 1615798643235,
    "duration" : 3161
  },
  "status" : "passed",
  "severity" : "normal"
}, {
  "uid" : "7d6516d61dd98d61",
  "name" : "Reader Dashboard footer links forgot password page",
  "time" : {
    "start" : 1615798598663,
    "stop" : 1615798607229,
    "duration" : 8566
  },
  "status" : "passed",
  "severity" : "normal"
}, {
  "uid" : "e15424466fc9a092",
  "name" : "",
  "time" : {
    "start" : 1615798644531,
    "stop" : 1615798657741,
    "duration" : 13210
  },
  "status" : "broken",
  "severity" : "normal"
}, {
  "uid" : "b94226fff22b900a",
  "name" : "On Sign-up page, links in I agree to the TrendMD [terms and conditions] and [privacy policy] opens correct pages",
  "time" : {
    "start" : 1615798728331,
    "stop" : 1615798734673,
    "duration" : 6342
  },
  "status" : "passed",
  "severity" : "normal"
}, {
  "uid" : "777041350950d0f0",
  "name" : "Check if checkboxes have default values",
  "time" : {
    "start" : 1615798715226,
    "stop" : 1615798718335,
    "duration" : 3109
  },
  "status" : "passed",
  "severity" : "normal"
}, {
  "uid" : "e3679634ef3386bf",
  "name" : "Validate menu list order",
  "time" : {
    "start" : 1615798666646,
    "stop" : 1615798674661,
    "duration" : 8015
  },
  "status" : "passed",
  "severity" : "normal"
}, {
  "uid" : "21eff540e08ecf",
  "name" : "Enable done button on same new and confirm password",
  "time" : {
    "start" : 1615798691449,
    "stop" : 1615798704241,
    "duration" : 12792
  },
  "status" : "passed",
  "severity" : "normal"
}, {
  "uid" : "69dab745c925760f",
  "name" : "Wrong password validation",
  "time" : {
    "start" : 1615798679550,
    "stop" : 1615798686237,
    "duration" : 6687
  },
  "status" : "passed",
  "severity" : "normal"
}, {
  "uid" : "2e90c249bf57531a",
  "name" : "Check reading list columns",
  "time" : {
    "start" : 1615798629430,
    "stop" : 1615798634443,
    "duration" : 5013
  },
  "status" : "passed",
  "severity" : "normal"
}, {
  "uid" : "4d1020d811241552",
  "name" : "Disable done button on different new and confirm password",
  "time" : {
    "start" : 1615798686238,
    "stop" : 1615798691449,
    "duration" : 5211
  },
  "status" : "passed",
  "severity" : "normal"
}, {
  "uid" : "d61304c48699a1b3",
  "name" : "Sign-up with an incorrectly formatted password",
  "time" : {
    "start" : 1615798708838,
    "stop" : 1615798712015,
    "duration" : 3177
  },
  "status" : "passed",
  "severity" : "normal"
}, {
  "uid" : "f9e93b0e2f809783",
  "name" : "Sign-up with an incorrectly formatted email",
  "time" : {
    "start" : 1615798705598,
    "stop" : 1615798708838,
    "duration" : 3240
  },
  "status" : "passed",
  "severity" : "normal"
}, {
  "uid" : "387531aaa64e36f4",
  "name" : "No registered user functionality",
  "time" : {
    "start" : 1615798620252,
    "stop" : 1615798623980,
    "duration" : 3728
  },
  "status" : "passed",
  "severity" : "normal"
}, {
  "uid" : "86d7cbaf03bc7ff2",
  "name" : "get cookies",
  "time" : {
    "start" : 1615798661930,
    "stop" : 1615798665342,
    "duration" : 3412
  },
  "status" : "passed",
  "severity" : "normal"
}, {
  "uid" : "b8e3e3a230a3935a",
  "name" : "Dropdown menu validation",
  "time" : {
    "start" : 1615798634443,
    "stop" : 1615798640074,
    "duration" : 5631
  },
  "status" : "passed",
  "severity" : "normal"
}, {
  "uid" : "34852ae6fadee6c8",
  "name" : "After sign out user is directed to login page",
  "time" : {
    "start" : 1615798674661,
    "stop" : 1615798679550,
    "duration" : 4889
  },
  "status" : "passed",
  "severity" : "normal"
}, {
  "uid" : "e99e4823c899ed1a",
  "name" : "\"after each\" hook for login page feature test",
  "time" : {
    "start" : 1615798657741,
    "stop" : 1615798658290,
    "duration" : 549
  },
  "status" : "passed",
  "severity" : "normal"
} ]