{
  "uid" : "98d3104e051c652961429bf95fa0b5d6",
  "name" : "suites",
  "children" : [ {
    "name" : "footer links tests",
    "children" : [ {
      "name" : "Reader Dashboard footer links Sign in page",
      "uid" : "d28570395eec0b37",
      "parentUid" : "895ef68c0796e4ccca7786a8f68282d3",
      "status" : "passed",
      "time" : {
        "start" : 1615798578007,
        "stop" : 1615798589199,
        "duration" : 11192
      },
      "flaky" : false,
      "newFailed" : false,
      "parameters" : [ "chrome-89.0.4389.82" ]
    }, {
      "name" : "Reader Dashboard footer links Sign up page",
      "uid" : "2d9a12c7769e7917",
      "parentUid" : "895ef68c0796e4ccca7786a8f68282d3",
      "status" : "passed",
      "time" : {
        "start" : 1615798589199,
        "stop" : 1615798598663,
        "duration" : 9464
      },
      "flaky" : false,
      "newFailed" : false,
      "parameters" : [ "chrome-89.0.4389.82" ]
    }, {
      "name" : "Reader Dashboard footer links forgot password page",
      "uid" : "7d6516d61dd98d61",
      "parentUid" : "895ef68c0796e4ccca7786a8f68282d3",
      "status" : "passed",
      "time" : {
        "start" : 1615798598663,
        "stop" : 1615798607229,
        "duration" : 8566
      },
      "flaky" : false,
      "newFailed" : false,
      "parameters" : [ "chrome-89.0.4389.82" ]
    }, {
      "name" : "Reader Dashboard footer links open correct pages when the user is logged in",
      "uid" : "e82da04334794c7f",
      "parentUid" : "895ef68c0796e4ccca7786a8f68282d3",
      "status" : "passed",
      "time" : {
        "start" : 1615798607229,
        "stop" : 1615798615620,
        "duration" : 8391
      },
      "flaky" : false,
      "newFailed" : false,
      "parameters" : [ "chrome-89.0.4389.82" ]
    } ],
    "uid" : "895ef68c0796e4ccca7786a8f68282d3"
  }, {
    "name" : "forgot password tests",
    "children" : [ {
      "name" : "Correct email validation functionality",
      "uid" : "744d91954355d907",
      "parentUid" : "93286fbc6811c81571af48578d343662",
      "status" : "passed",
      "time" : {
        "start" : 1615798616946,
        "stop" : 1615798620252,
        "duration" : 3306
      },
      "flaky" : false,
      "newFailed" : false,
      "parameters" : [ "chrome-89.0.4389.82" ]
    }, {
      "name" : "No registered user functionality",
      "uid" : "387531aaa64e36f4",
      "parentUid" : "93286fbc6811c81571af48578d343662",
      "status" : "passed",
      "time" : {
        "start" : 1615798620252,
        "stop" : 1615798623980,
        "duration" : 3728
      },
      "flaky" : false,
      "newFailed" : false,
      "parameters" : [ "chrome-89.0.4389.82" ]
    }, {
      "name" : "Request sent functionality",
      "uid" : "267161b2380e60c",
      "parentUid" : "93286fbc6811c81571af48578d343662",
      "status" : "passed",
      "time" : {
        "start" : 1615798623980,
        "stop" : 1615798627923,
        "duration" : 3943
      },
      "flaky" : false,
      "newFailed" : false,
      "parameters" : [ "chrome-89.0.4389.82" ]
    } ],
    "uid" : "93286fbc6811c81571af48578d343662"
  }, {
    "name" : "sign up page tests",
    "children" : [ {
      "name" : "Check reading list columns",
      "uid" : "2e90c249bf57531a",
      "parentUid" : "edba498c8a1d62c49dc2d05004ba778c",
      "status" : "passed",
      "time" : {
        "start" : 1615798629430,
        "stop" : 1615798634443,
        "duration" : 5013
      },
      "flaky" : false,
      "newFailed" : false,
      "parameters" : [ "chrome-89.0.4389.82" ]
    }, {
      "name" : "Dropdown menu validation",
      "uid" : "b8e3e3a230a3935a",
      "parentUid" : "edba498c8a1d62c49dc2d05004ba778c",
      "status" : "passed",
      "time" : {
        "start" : 1615798634443,
        "stop" : 1615798640074,
        "duration" : 5631
      },
      "flaky" : false,
      "newFailed" : false,
      "parameters" : [ "chrome-89.0.4389.82" ]
    }, {
      "name" : "Remove/Re-add articles",
      "uid" : "d7ecbf3c283eb31",
      "parentUid" : "edba498c8a1d62c49dc2d05004ba778c",
      "status" : "passed",
      "time" : {
        "start" : 1615798640074,
        "stop" : 1615798643235,
        "duration" : 3161
      },
      "flaky" : false,
      "newFailed" : false,
      "parameters" : [ "chrome-89.0.4389.82" ]
    }, {
      "name" : "Sign-up with an incorrectly formatted email",
      "uid" : "f9e93b0e2f809783",
      "parentUid" : "edba498c8a1d62c49dc2d05004ba778c",
      "status" : "passed",
      "time" : {
        "start" : 1615798705598,
        "stop" : 1615798708838,
        "duration" : 3240
      },
      "flaky" : false,
      "newFailed" : false,
      "parameters" : [ "chrome-89.0.4389.82" ]
    }, {
      "name" : "Sign-up with an incorrectly formatted password",
      "uid" : "d61304c48699a1b3",
      "parentUid" : "edba498c8a1d62c49dc2d05004ba778c",
      "status" : "passed",
      "time" : {
        "start" : 1615798708838,
        "stop" : 1615798712015,
        "duration" : 3177
      },
      "flaky" : false,
      "newFailed" : false,
      "parameters" : [ "chrome-89.0.4389.82" ]
    }, {
      "name" : "Sign-up without checking checkbox I agree to the TrendMD",
      "uid" : "a80b8fd2210709a4",
      "parentUid" : "edba498c8a1d62c49dc2d05004ba778c",
      "status" : "passed",
      "time" : {
        "start" : 1615798712015,
        "stop" : 1615798715226,
        "duration" : 3211
      },
      "flaky" : false,
      "newFailed" : false,
      "parameters" : [ "chrome-89.0.4389.82" ]
    }, {
      "name" : "Check if checkboxes have default values",
      "uid" : "777041350950d0f0",
      "parentUid" : "edba498c8a1d62c49dc2d05004ba778c",
      "status" : "passed",
      "time" : {
        "start" : 1615798715226,
        "stop" : 1615798718335,
        "duration" : 3109
      },
      "flaky" : false,
      "newFailed" : false,
      "parameters" : [ "chrome-89.0.4389.82" ]
    }, {
      "name" : "Text of checkboxes",
      "uid" : "42e0e9c8ec45144f",
      "parentUid" : "edba498c8a1d62c49dc2d05004ba778c",
      "status" : "passed",
      "time" : {
        "start" : 1615798718335,
        "stop" : 1615798721452,
        "duration" : 3117
      },
      "flaky" : false,
      "newFailed" : false,
      "parameters" : [ "chrome-89.0.4389.82" ]
    }, {
      "name" : "Sign-up with a correctly formatted email address and password",
      "uid" : "fc11a1a90237ccf",
      "parentUid" : "edba498c8a1d62c49dc2d05004ba778c",
      "status" : "passed",
      "time" : {
        "start" : 1615798721453,
        "stop" : 1615798724551,
        "duration" : 3098
      },
      "flaky" : false,
      "newFailed" : false,
      "parameters" : [ "chrome-89.0.4389.82" ]
    }, {
      "name" : "Create an account with an existing email in DB",
      "uid" : "af8f5be5cd3c2c26",
      "parentUid" : "edba498c8a1d62c49dc2d05004ba778c",
      "status" : "passed",
      "time" : {
        "start" : 1615798724551,
        "stop" : 1615798728331,
        "duration" : 3780
      },
      "flaky" : false,
      "newFailed" : false,
      "parameters" : [ "chrome-89.0.4389.82" ]
    }, {
      "name" : "On Sign-up page, links in I agree to the TrendMD [terms and conditions] and [privacy policy] opens correct pages",
      "uid" : "b94226fff22b900a",
      "parentUid" : "edba498c8a1d62c49dc2d05004ba778c",
      "status" : "passed",
      "time" : {
        "start" : 1615798728331,
        "stop" : 1615798734673,
        "duration" : 6342
      },
      "flaky" : false,
      "newFailed" : false,
      "parameters" : [ "chrome-89.0.4389.82" ]
    } ],
    "uid" : "edba498c8a1d62c49dc2d05004ba778c"
  }, {
    "name" : "login page feature test",
    "children" : [ {
      "name" : "",
      "uid" : "e15424466fc9a092",
      "parentUid" : "d9ed5704eee91a664d7439de9aa464a1",
      "status" : "broken",
      "time" : {
        "start" : 1615798644531,
        "stop" : 1615798657741,
        "duration" : 13210
      },
      "flaky" : false,
      "newFailed" : false,
      "parameters" : [ "chrome-89.0.4389.82" ]
    }, {
      "name" : "\"after each\" hook for login page feature test",
      "uid" : "e99e4823c899ed1a",
      "parentUid" : "d9ed5704eee91a664d7439de9aa464a1",
      "status" : "passed",
      "time" : {
        "start" : 1615798657741,
        "stop" : 1615798658290,
        "duration" : 549
      },
      "flaky" : false,
      "newFailed" : false,
      "parameters" : [ "chrome-89.0.4389.82" ]
    }, {
      "name" : "verify wrong credential message",
      "uid" : "30cca747c79b9e15",
      "parentUid" : "d9ed5704eee91a664d7439de9aa464a1",
      "status" : "passed",
      "time" : {
        "start" : 1615798658290,
        "stop" : 1615798661930,
        "duration" : 3640
      },
      "flaky" : false,
      "newFailed" : false,
      "parameters" : [ "chrome-89.0.4389.82" ]
    }, {
      "name" : "get cookies",
      "uid" : "86d7cbaf03bc7ff2",
      "parentUid" : "d9ed5704eee91a664d7439de9aa464a1",
      "status" : "passed",
      "time" : {
        "start" : 1615798661930,
        "stop" : 1615798665342,
        "duration" : 3412
      },
      "flaky" : false,
      "newFailed" : false,
      "parameters" : [ "chrome-89.0.4389.82" ]
    } ],
    "uid" : "d9ed5704eee91a664d7439de9aa464a1"
  }, {
    "name" : "settings page tests",
    "children" : [ {
      "name" : "Validate menu list order",
      "uid" : "e3679634ef3386bf",
      "parentUid" : "9ecf775ea8786bd35cc385645d36e66c",
      "status" : "passed",
      "time" : {
        "start" : 1615798666646,
        "stop" : 1615798674661,
        "duration" : 8015
      },
      "flaky" : false,
      "newFailed" : false,
      "parameters" : [ "chrome-89.0.4389.82" ]
    }, {
      "name" : "After sign out user is directed to login page",
      "uid" : "34852ae6fadee6c8",
      "parentUid" : "9ecf775ea8786bd35cc385645d36e66c",
      "status" : "passed",
      "time" : {
        "start" : 1615798674661,
        "stop" : 1615798679550,
        "duration" : 4889
      },
      "flaky" : false,
      "newFailed" : false,
      "parameters" : [ "chrome-89.0.4389.82" ]
    }, {
      "name" : "Wrong password validation",
      "uid" : "69dab745c925760f",
      "parentUid" : "9ecf775ea8786bd35cc385645d36e66c",
      "status" : "passed",
      "time" : {
        "start" : 1615798679550,
        "stop" : 1615798686237,
        "duration" : 6687
      },
      "flaky" : false,
      "newFailed" : false,
      "parameters" : [ "chrome-89.0.4389.82" ]
    }, {
      "name" : "Disable done button on different new and confirm password",
      "uid" : "4d1020d811241552",
      "parentUid" : "9ecf775ea8786bd35cc385645d36e66c",
      "status" : "passed",
      "time" : {
        "start" : 1615798686238,
        "stop" : 1615798691449,
        "duration" : 5211
      },
      "flaky" : false,
      "newFailed" : false,
      "parameters" : [ "chrome-89.0.4389.82" ]
    }, {
      "name" : "Enable done button on same new and confirm password",
      "uid" : "21eff540e08ecf",
      "parentUid" : "9ecf775ea8786bd35cc385645d36e66c",
      "status" : "passed",
      "time" : {
        "start" : 1615798691449,
        "stop" : 1615798704241,
        "duration" : 12792
      },
      "flaky" : false,
      "newFailed" : false,
      "parameters" : [ "chrome-89.0.4389.82" ]
    } ],
    "uid" : "9ecf775ea8786bd35cc385645d36e66c"
  } ]
}