launch_status failed=0 1615798758000000000
launch_status broken=1 1615798758000000000
launch_status passed=26 1615798758000000000
launch_status skipped=0 1615798758000000000
launch_status unknown=0 1615798758000000000
launch_time duration=156666 1615798758000000000
launch_time min_duration=549 1615798758000000000
launch_time max_duration=13210 1615798758000000000
launch_time sum_duration=149874 1615798758000000000
launch_problems test_defects=1 1615798758000000000
launch_retries retries=1 1615798758000000000
launch_retries run=27 1615798758000000000
